…
    ## New names:
    ## * `` -> ...10

``` r
table$DATE <- gsub('.xlsx','',table$DATE)
```

``` r
table
```

    ## # A tibble: 2,180 x 11
    ##    DATE  COD_VIAJE CLIENTE UBICACION CANTIDAD PILOTO     Q CREDITO UNIDAD  TIPO
    ##    <chr>     <dbl> <chr>       <dbl>    <dbl> <chr>  <dbl>   <dbl> <chr>  <dbl>
    ##  1 01-2~  10000001 EL PIN~     76002     1200 Ferna~ 300        30 Camio~    NA
    ##  2 01-2~  10000002 TAQUER~     76002     1433 Hecto~ 358.       90 Camio~    NA
    ##  3 01-2~  10000003 TIENDA~     76002     1857 Pedro~ 464.       60 Camio~    NA
    ##  4 01-2~  10000004 TAQUER~     76002      339 Angel~  84.8      30 Panel     NA
    ##  5 01-2~  10000005 CHICHA~     76001     1644 Juan ~ 411        30 Camio~    NA
    ##  6 01-2~  10000006 UBIQUO~     76001     1827 Luis ~ 457.       30 Camio~    NA
    ##  7 01-2~  10000007 CHICHA~     76002     1947 Ismae~ 487.       90 Camio~    NA
    ##  8 01-2~  10000008 TAQUER~     76001     1716 Juan ~ 429        60 Camio~    NA
    ##  9 01-2~  10000009 EL GAL~     76002     1601 Ismae~ 400.       30 Camio~    NA
    ## 10 01-2~  10000010 CHICHA~     76002     1343 Ferna~ 336.       90 Camio~    NA
    ## # ... with 2,170 more rows, and 1 more variable: ...10 <dbl>
…
