…
x <- parcial_anonimo %>% 
  filter(Venta>0) %>% 
  group_by(Cliente,Pais) %>%
  summarise(EficienciaPromedio = mean(Venta/`Unidades plaza`, na.rm=TRUE) )
```

    ## `summarise()` regrouping output by 'Cliente' (override with `.groups` argument)

``` r
x
```

    ## # A tibble: 2,128 x 3
    ## # Groups:   Cliente [2,122]
    ##    Cliente  Pais     EficienciaPromedio
    ##    <chr>    <chr>                 <dbl>
    ##  1 0007d709 4f03bd9b              10.5 
    ##  2 005f334f 4046ee34              10.7 
    ##  3 00a3a1af 4046ee34               6.60
    ##  4 00f1f944 4f03bd9b               6.31
    ##  5 011806a5 4046ee34              14.7 
    ##  6 0198eb9e 4046ee34               6.82
    ##  7 01b8f89c 4f03bd9b               3.97
    ##  8 01cd5a7f 4f03bd9b              19.6 
    ##  9 01cfc368 4f03bd9b               4.54
    ## 10 01e81b4a 4f03bd9b               5.05
    ## # ... with 2,118 more rows
…
